Place,Name,State,WeightClassKg,BodyweightKg,BirthDate,Age,Squat1Kg,Squat2Kg,Squat3Kg,Best3SquatKg,Bench1Kg,Bench2Kg,Bench3Kg,Best3BenchKg,Deadlift1Kg,Deadlift2Kg,Deadlift3Kg,Best3DeadliftKg,TotalKg,Squat4Kg,Bench4Kg,Event,Equipment,Sex,Division
1,Renee Sizemore,TX,60,57.8,,37,-70,70,75,75,37.5,40,45,45,95,97.5,112.5,112.5,232.5,,,SBD,Raw,F,Open
1,Victoria Acosta,TX,82.5,80.6,,23,117.5,127.5,132.5,132.5,67.5,-77.5,77.5,77.5,147.5,160,-165,160,370,,,SBD,Raw,F,Open
1,Molly Apodaca,TX,90,89.1,,29,-95,95,-100,95,52.5,-55,-55,52.5,132.5,140,145,145,292.5,,,SBD,Raw,F,Open
1,Jessica Kent,TX,90+,107.8,,34,120,130,-142.5,130,60,70,-72.5,70,160,172.5,185,185,385,,,SBD,Raw,F,Open
1,Stacie Garza,TX,75,70.9,,39,82.5,95,102.5,102.5,60,67.5,72.5,72.5,125,135,-145,135,310,,,SBD,Raw,F,Submasters 35-39
1,Donovan Munoz,TX,67.5,61.7,,14,70,72.5,77.5,77.5,55,60,-62.5,60,107.5,-112.5,112.5,112.5,250,,,SBD,Raw,M,Juniors 13-15
1,Ismael Valdivia,TX,75,73,,20,155,157.5,-172.5,157.5,92.5,97.5,-105,97.5,150,-167.5,172.5,172.5,427.5,,,SBD,Raw,M,Juniors 20-23
1,LeJarin Stringer,TX,82.5,79.9,,23,155,157.5,175,175,140,145,147.5,147.5,200,210,220,220,542.5,,,SBD,Raw,M,Juniors 20-23
2,Jacob Jacquez,TX,82.5,79.1,,20,162.5,165,175,175,92.5,100,105,105,200,-215,215,215,495,,,SBD,Raw,M,Juniors 20-23
1,Dylan Carrasco,TX,90,83.4,,15,117.5,120,127.5,127.5,82.5,87.5,-92.5,87.5,132.5,137.5,150,150,365,,,SBD,Raw,M,Juniors 13-15
1,Jacobee Ortega,TX,100,93.7,,17,182.5,-205,-210,182.5,105,110,-120,110,200,220,227.5,227.5,520,,,SBD,Raw,M,Juniors 16-17
1,Joseph Garcia,CO,110,109.1,,23,-280,285,292.5,292.5,192.5,-197.5,197.5,197.5,317.5,325,-335,325,815,,205,SBD,Raw,M,Juniors 20-23
1,Brayan Olvera,TX,140+,153.6,,17,245,-265,272.5,272.5,137.5,147.5,-155,147.5,200,220,-240,220,640,,,SBD,Raw,M,Juniors 16-17
1,Eric Rubio,TX,82.5,81,,29,210,-227.5,-227.5,210,130,137.5,-145,137.5,245,-262.5,-272.5,245,592.5,,,SBD,Raw,M,Open
1,Vincent Farello,TX,90,85.2,,24,212.5,222.5,230,230,125,-137.5,137.5,137.5,222.5,250,265,265,632.5,,,SBD,Raw,M,Open
2,Manny Fernandez,TX,90,88.6,,37,210,222.5,-227.5,222.5,120,130,-137.5,130,207.5,-217.5,227.5,227.5,580,,,SBD,Raw,M,Open
1,Dalton Rimmer,TN,100,97.3,,27,190,-210,222.5,222.5,145,157.5,-165,157.5,230,-250,-250,230,610,,,SBD,Raw,M,Open
2,Jacobee Ortega,TX,100,93.7,,17,182.5,-205,-210,182.5,105,110,-120,110,200,220,227.5,227.5,520,,,SBD,Raw,M,Open
DQ,Rogelio Giner,CO,100,97.1,,27,-215,-215,-215,,147.5,152.5,-155,152.5,245,250,,250,,,,SBD,Raw,M,Open
DQ,Michael Chapman,TX,100,99.9,,30,147.5,160,172.5,172.5,-132.5,-132.5,-132.5,,205,210,220,220,,,,SBD,Raw,M,Open
1,Joseph Garcia,CO,110,109.1,,23,-280,285,292.5,292.5,192.5,-197.5,197.5,197.5,317.5,325,-335,325,815,,205,SBD,Raw,M,Open
2,Christopher Carroll,TX,110,104.3,,38,-227.5,227.5,237.5,237.5,102.5,127.5,-140,127.5,227.5,250,270,270,635,,,SBD,Raw,M,Open
3,Colton Murphy,TX,110,110,,24,182.5,195,200,200,112.5,120,-127.5,120,-202.5,202.5,210,210,530,,,SBD,Raw,M,Open
1,Lance Erdmann,TX,125,119,,38,220,227.5,235,235,-150,152.5,160,160,250,-262.5,267.5,267.5,662.5,,,SBD,Raw,M,Open
1,Zachary Saldivar,TX,140,138.1,,30,225,235,250,250,-160,160,180,180,245,-255,-265,245,675,,,SBD,Raw,M,Open
2,Douglas Jay Williamson,TX,140,130.9,,33,225,235,240,240,125,135,140,140,225,235,242.5,242.5,622.5,,,SBD,Raw,M,Open
1,Adam Apodaca,NM,140+,157.8,,29,-280,-285,285,285,182.5,185.5,190,190,267.5,282.5,295.5,295.5,770.5,295.5,,SBD,Raw,M,Open
2,Brayan Olvera,TX,140+,153.6,,17,245,-265,272.5,272.5,137.5,147.5,-155,147.5,200,220,-240,220,640,,,SBD,Raw,M,Open
3,Russell Shrauner,TX,140+,152.6,,32,-160,160,180,180,100,115,-137.5,115,185,205,-227.5,205,500,,,SBD,Raw,M,Open
1,Stephen Schear,TX,82.5,81.1,,35,170,-182.5,182.5,182.5,125,-137.5,137.5,137.5,185,200,-205,200,520,,,SBD,Raw,M,Submasters 35-39
1,Manny Fernandez,TX,90,88.6,,37,210,222.5,-227.5,222.5,120,130,-137.5,130,207.5,-217.5,227.5,227.5,580,,,SBD,Raw,M,Submasters 35-39
1,Christopher Carroll,TX,110,104.3,,38,-227.5,227.5,237.5,237.5,102.5,127.5,-140,127.5,227.5,250,270,270,635,,,SBD,Raw,M,Submasters 35-39
1,Andrea Thompson,TX,75,74.4,,37,-92.5,95,-100,95,57.5,62.5,-70,62.5,105,110,115,115,272.5,,,SBD,Wraps,F,Submasters 35-39
1,Bradley Hernandez,TX,82.5,80.1,,23,227.5,-237.5,-237.5,227.5,137.5,-147.5,-147.5,137.5,227.5,240,-250,240,605,,,SBD,Wraps,M,Juniors 20-23
1,Brannen Pierson,TX,90,84,,13,82.5,92.5,105,105,55,62.5,-67.5,62.5,105,112.5,130,130,297.5,,,SBD,Wraps,M,Juniors 13-15
1,Adrian Vargas,CO,82.5,80.1,,19,-220,227.5,245,245,127.5,142.5,152.5,152.5,260,272.5,-282.5,272.5,670,,,SBD,Wraps,M,Open
1,Alfred Munoz,TX,100,99.1,,41,215,222.5,-227.5,222.5,150,157.5,-165,157.5,235,240,-245,240,620,,,SBD,Wraps,M,Open
DQ,Skylar Alexander,TX,125,117.7,,34,227.5,250,-260,250,150,-160,-160,150,-227.5,-240,-240,,,,,SBD,Wraps,M,Open
1,Alfred Munoz,TX,100,99.1,,41,215,222.5,-227.5,222.5,150,157.5,-165,157.5,235,240,-245,240,620,,,SBD,Wraps,M,Masters 40-44
