Place,Name,Sex,BirthDate,Country,Equipment,Division,BodyweightKg,WeightClassKg,Squat1Kg,Squat2Kg,Squat3Kg,Best3SquatKg,Bench1Kg,Bench2Kg,Bench3Kg,Best3BenchKg,Deadlift1Kg,Deadlift2Kg,Deadlift3Kg,Best3DeadliftKg,TotalKg,Event,Team
1,Bruna Luiza Lemes,F,1999-03-15,Brazil,Wraps,Juniors 20-23,72.3,75,100,115,-125,115,55,60,-62.5,60,95,110,-120,110,285,SBD,NIRVANA BARBELL
DQ,Paula Mayara Da Silva,F,1998-04-12,Brazil,Wraps,Juniors 20-23,74.9,75,100,115,125,125,-60,-70,-70,,100,115,130,130,,SBD,GLADIADORES/VALHALA
1,Sandra Regina Do Amaral Ferreira,F,1977-05-18,Brazil,Wraps,Masters 40-44,65.5,67.5,100,-110,110,110,75,77.5,80,80,150,160,170,170,360,SBD,A CAVERNA GYM
1,Ana Rosa Bueno,F,1973-07-02,Brazil,Wraps,Masters 45-49,59.9,60,100,115,122.5,122.5,50,55,-60,55,107.5,117.5,130,130,307.5,SBD,BETO NINJA
1,Nanci Elizabeth James Marchioro,F,1966-10-03,Brazil,Wraps,Masters 50-54,98,90+,80,100,120,120,40,55,-60,55,80,120,130,130,305,SBD,GLADIADORES/VALHALA
1,Andriele Hortiz De Lara,F,1995-09-12,Brazil,Wraps,Open,56.6,60,70,90,100,100,30,-35,-40,30,80,90,105,105,235,SBD,GLADIADORES/VALHALA
1,Maria Dalva Aparecida Lopes Da Silva,F,1986-01-16,Brazil,Wraps,Open,63.9,67.5,120,125,130,130,50,55,57.5,57.5,130,135,140,140,327.5,SBD,TRIBOX
2,Diandra Portela,F,1991-11-29,Brazil,Wraps,Open,67.1,67.5,115,125,-130,125,37.5,45,50,50,120,135,145,145,320,SBD,A CAVERNA GYM
3,Marcia Cristina De Andrade Marins,F,1981-10-12,Brazil,Wraps,Open,64.2,67.5,90,100,110,110,50,-55,-57.5,50,110,120,-130,120,280,SBD,NIRVANA BARBELL
DQ,Nicole Dombroski,F,1997-08-22,Brazil,Wraps,Open,62.5,67.5,90,100,110,110,-60,-60,-60,,115,120,130,130,,SBD,NIRVANA BARBELL
1,Morgana Correa De Oliveira,F,1993-03-23,Brazil,Wraps,Open,71.9,75,95,100,105,105,45,50,-55,50,145,160,-170,160,315,SBD,NIRVANA BARBELL
DQ,Paula Mayara Da Silva,F,1998-04-12,Brazil,Wraps,Open,74.9,75,100,115,125,125,-60,-70,-70,,100,115,130,130,,SBD,GLADIADORES/VALHALA
1,Viviane Maris Brites Cardoso,F,1982-04-26,Brazil,Wraps,Open,78.8,82.5,110,120,130,130,70,75,80,80,120,140,155,155,365,SBD,A CAVERNA GYM
2,Edicleia Gabriela Das Almas,F,1997-07-08,Brazil,Wraps,Open,78.6,82.5,120,130,-137.5,130,50,52.5,-55,52.5,140,150,-160,150,332.5,SBD,TRIBOX
1,Bruna Luiza Lemes,F,1999-03-15,Brazil,Raw,Juniors 20-23,72.3,75,,,,,55,60,-62.5,60,,,,,60,B,NIRVANA BARBELL
1,Maiara Ludmila Santos De Oliveira,F,1997-05-02,Brazil,Raw,Open,65.5,67.5,,,,,45,-50,-50,45,,,,,45,B,NIRVANA BARBELL
DQ,Nicole Dombroski,F,1997-08-22,Brazil,Raw,Open,62.5,67.5,,,,,-60,-60,-60,,,,,,,B,NIRVANA BARBELL
1,Andressa Lazzarotto,F,1986-05-16,Brazil,Raw,Open,82.5,82.5,,,,,67.5,80,-90,80,,,,,80,B,
NS,Cristiane De Oliveira,F,1981-06-29,Brazil,Raw,Masters 40-44,,,,,,,,,,,,,,,,D,TRIBOX
1,Juliane Dos Santos Stresser,F,1988-08-04,Brazil,Raw,Open,55.4,56,,,,,,,,,-95,105,110,110,110,D,TRIBOX
1,Gabrieli Correia De Faria,F,1996-03-22,Brazil,Raw,Open,63.7,67.5,,,,,,,,,125,132.5,-135,132.5,132.5,D,TRIBOX
1,Morgana Correa De Oliveira,F,1993-03-23,Brazil,Raw,Open,71.9,75,,,,,,,,,145,160,-170,160,160,D,NIRVANA BARBELL
1,Andressa Lazzarotto,F,1986-05-16,Brazil,Raw,Open,82.5,82.5,,,,,,,,,167.5,-175,175,175,175,D,
2,Edicleia Gabriela Das Almas,F,1997-07-08,Brazil,Raw,Open,78.6,82.5,,,,,,,,,140,150,-160,150,150,D,TRIBOX
NS,Ana Rafaela Gomes Do Nascimento,F,2011-05-06,Brazil,Raw,Youth,,,,,,,,,,,,,,,,D,TRIBOX
1,Giuliana Vitoria Stresser Faria,F,2011-08-11,Brazil,Raw,Youth,44,44,,,,,,,,,50,55,60,60,60,D,TRIBOX
1,Ana Rafaela Gomes Do Nascimento,F,2011-05-06,,Raw,Youth,44.5,48,,,,,,,,,50,55,60,60,60,D,tribo X
1,Isabeli Oliveira Silva,F,2009-02-23,Brazil,Raw,Youth,56.8,60,,,,,,,,,60,70,80,80,80,D,TRIBOX
NS,Alan Da Silva Osório,M,2001-03-13,Brazil,Raw,Juniors 20-23,,,,,,,,,,,,,,,,SBD,A CAVERNA GYM
1,Alan Da Silva Osório,M,2001-03-13,Brazil,Wraps,Juniors 20-23,72.8,75,135,145,155,155,72.5,-80,80,80,132.5,-140,140,140,375,SBD,A CAVERNA GYM
1,Marcos Vinicius Gandra De Souza,M,1998-01-12,Brazil,Wraps,Juniors 20-23,98.5,100,155,175,-190,175,100,105,110,110,170,190,205,205,490,SBD,NIRVANA BARBELL
NS,Alessadro Da Costa Alves,M,1981-02-13,,Wraps,Masters 40-44,,,,,,,,,,,,,,,,SBD,PowerZone
1,Carlos Alberto Rodrigues,M,1979-04-07,Brazil,Wraps,Masters 40-44,103.4,110,170,180,190,190,-135,140,145,145,205,210,220,220,555,SBD,A CAVERNA GYM
1,Alyson Caue Thieves Toczek,M,1975-06-02,Brazil,Wraps,Masters 45-49,94.4,100,170,190,200,200,110,120,130,130,220,240,250,250,580,SBD,GLADIADORES VAL.
1,Alberto Carlos Seabra Norce,M,1969-08-08,Brazil,Wraps,Masters 50-54,97.1,100,-140,150,170,170,110,122.5,127.5,127.5,160,180,200,200,497.5,SBD,BETO NINJA
1,Fabio De Paula Xavier Marchioro,M,1962-09-08,Brazil,Wraps,Masters 55-59,122.8,125,80,-120,130,130,60,70,90,90,100,140,160,160,380,SBD,GLADIADORE/VALHALA
1,Serafim Rocha,M,1948-04-27,Brazil,Wraps,Masters 70-74,105,110,70,100,110,110,90,95,100,100,120,-140,-140,120,330,SBD,Beto Ninja
NS,Alan Da Silva Osório,M,2001-03-13,Brazil,Wraps,Open,,,,,,,,,,,,,,,,SBD,A CAVERNA GYM
NS,Alessadro Da Costa Alves,M,1981-02-13,,Wraps,Open,,,,,,,,,,,,,,,,SBD,PowerZone
1,Alan Da Silva De Ramos,M,1995-03-09,Brazil,Wraps,Open,66.5,67.5,80,100,120,120,70,80,-85,80,150,160,170,170,370,SBD,GLADIADORES/VALHALA
1,José Calazans Stresser Júnior,M,1993-06-05,Brazil,Wraps,Open,67.9,75,180,185,190,190,117.5,122.5,125,125,190,200,-205,200,515,SBD,TRIBOX
2,Alan Da Silva Osório,M,2001-03-13,Brazil,Wraps,Open,72.8,75,135,145,155,155,72.5,-80,80,80,132.5,-140,140,140,375,SBD,A CAVERNA GYM
3,Massimo Fontana Becker,M,2014-05-05,Brazil,Wraps,Open,72.1,75,100,115,130,130,70,80,-90,80,120,140,155,155,365,SBD,POWERZONE
1,Charles Soares Ribeiro,M,1976-09-07,Brazil,Wraps,Open,81,82.5,240,255,-270,255,140,155,-162.5,155,260,275,-285,275,685,SBD,GLADIADORES/VALHALA
2,André Matheus Vieira,M,1994-06-16,Brazil,Wraps,Open,80.8,82.5,160,180,187.5,187.5,110,120,132.5,132.5,220,240,247.5,247.5,567.5,SBD,DIAMOND
3,Augusto De Lima Vicente,M,1986-04-13,,Wraps,Open,82.5,82.5,190,-210,-210,190,100,125,-135,125,190,205,215,215,530,SBD,POWERZONE
1,Antonio Luiz Coan Bittercount,M,1989-07-24,Brazil,Wraps,Open,88.9,90,200,220,235,235,115,122.5,-127.5,122.5,210,230,235,235,592.5,SBD,GLADIADORES/VALHALA
2,Evandro Souza Lima Da Silva,M,1993-08-28,Brazil,Wraps,Open,88.5,90,180,190,-200,190,120,130,140,140,220,240,250,250,580,SBD,GLADIADORES/VALHALA
1,Antônio Aparecido Antunes,M,1988-03-28,Brazil,Wraps,Open,100,100,300,-310,-310,300,170,185,-200,185,300,310,315,315,800,SBD,
2,Marcos Roberto Scholochaski,M,1988-06-06,Brazil,Wraps,Open,95,100,240,260,-270,260,120,135,-140,135,240,260,-270,260,655,SBD,GLADIADORES/VALHALA
1,Marco Antonio Faria,M,1982-06-10,Brazil,Wraps,Open,102.1,110,250,270,-280,270,150,160,-170,160,275,285,-295,285,715,SBD,GLADIADORES/VALHALA
2,Alessandro Da Costa Alves,M,1981-02-13,Brazil,Wraps,Open,109.5,110,190,220,-260,220,-140,150,-160,150,240,260,270,270,640,SBD,POWERZONE
1,Bruno Cleiton da Silva,M,1990-05-07,Brazil,Wraps,Open,121.3,125,250,280,305,305,120,145,-155,145,290,310,-315,310,760,SBD,BETO NINJA
2,Genner Mateus Seco,M,1995-09-05,Brazil,Wraps,Open,121.8,125,170,200,-220,200,110,125,140,140,200,230,245,245,585,SBD,GLADIADORES/VALHALA
1,Israel Angelo Comelli,M,1989-05-28,Brazil,Wraps,Open,132.3,140,335,365,372.5,372.5,190,-195,-195,190,325,-342.5,-342.5,325,887.5,SBD,BETO NINJA
2,Ruda Emanuel Egidio Pereira,M,1987-08-18,Brazil,Wraps,Open,136.4,140,230,240,260,260,165,175,180,180,260,280,-290,280,720,SBD,
1,Andre Vidal Tarastchuk,M,2003-03-31,Brazil,Wraps,Sub-Juniors 17-19,73.6,75,-110,120,130,130,85,-100,100,100,145,160,175,175,405,SBD,POWERZONE
2,Massimo Fontana Becker,M,,Brazil,Wraps,Sub-Juniors 17-19,72.1,75,100,115,130,130,70,80,-90,80,120,140,155,155,365,SBD,POWERZONE
1,Gabriel F. Lima,M,2004-11-17,Brazil,Wraps,Teen 14-16,89.9,90,150,180,-200,180,70,85,87.5,87.5,150,180,-200,180,447.5,SBD,GLADIADORES/VALHALA
1,Gabriel F. Lima,M,2004-11-17,Brazil,Wraps,Teen 14-16,89.9,90,150,180,-200,180,,,,,,,,,180,S,GLADIADORES/VALHALA
NS,Alan Da Silva Osório,M,2001-03-13,Brazil,Raw,Juniors 20-23,,,,,,,,,,,,,,,,B,A CAVERNA GYM
1,Doralicio Alvez,M,1978-11-08,Brazil,Raw,Masters 40-44,86,90,,,,,110,120,-130,120,,,,,120,B,GLADIADORES/VALHALA
1,Jair Neves Da Silva,M,1980-10-29,Brazil,Raw,Masters 40-44,117.1,125,,,,,-210,210,-217.5,210,,,,,210,B,Beto Ninja
NS,Alan Da Silva Osório,M,2001-03-13,Brazil,Raw,Open,,,,,,,,,,,,,,,,B,A CAVERNA GYM
NS,Herik Dos Santos Emsters,M,1992-08-27,Brazil,Raw,Open,,,,,,,,,,,,,,,,B,ZE MOITINHA SUPLEM.
1,Reginaldo Pedroso Almeida Junior,M,1989-04-08,Brazil,Raw,Open,61.6,67.5,,,,,100,105,110,110,,,,,110,B,Beto ninja
1,José Calazans Stresser Júnior,M,1993-06-05,Brazil,Raw,Open,67.9,75,,,,,117.5,122.5,125,125,,,,,125,B,TRIBOX
2,Massimo Fontana Becker,M,2014-05-05,Brazil,Raw,Open,72.1,75,,,,,70,80,-90,80,,,,,80,B,POWERZONE
1,Herber Artigas,M,1982-11-22,Brazil,Raw,Open,81.5,82.5,,,,,150,-162.5,162.5,162.5,,,,,162.5,B,
2,André Matheus Vieira,M,1994-06-16,Brazil,Raw,Open,80.8,82.5,,,,,110,120,132.5,132.5,,,,,132.5,B,DIAMOND
3,Thiarlles Calazans,M,1995-03-29,,Raw,Open,80.8,82.5,,,,,120,125,130,130,,,,,130,B,
1,Doralicio Alvez,M,1978-11-08,Brazil,Raw,Open,86,90,,,,,110,120,-130,120,,,,,120,B,GLADIADORES/VALHALA
1,Livonei Candido,M,1996-07-10,Brazil,Raw,Open,104.9,110,,,,,165,-170,-177.5,165,,,,,165,B,
1,Renan Vitor De Andrade Ribeiro,M,1993-06-30,Brazil,Raw,Open,121.8,125,,,,,110,120,-130,120,,,,,120,B,NIRVANA BARBELL
1,Massimo Fontana Becker,M,,Brazil,Raw,Sub-Juniors 17-19,72.1,75,,,,,70,80,-90,80,,,,,80,B,POWERZONE
1,Gabriel F. Lima,M,2004-11-17,Brazil,Raw,Teen 14-16,89.9,90,,,,,70,85,87.5,87.5,,,,,87.5,B,GLADIADORES/VALHALA
NS,Alan Da Silva Osório,M,2001-03-13,Brazil,Raw,Juniors 20-23,,,,,,,,,,,,,,,,D,A CAVERNA GYM
NS,Doralício Alves,M,1978-11-08,,Raw,Masters 40-44,,,,,,,,,,,,,,,,D,
1,Doralicio Alvez,M,1978-11-08,Brazil,Raw,Masters 40-44,86,90,,,,,,,,,220,-240,240,240,240,D,GLADIADORES/VALHALA
NS,Alan Da Silva Osório,M,2001-03-13,Brazil,Raw,Open,,,,,,,,,,,,,,,,D,A CAVERNA GYM
NS,Caetano Mendes Collaço,M,1979-08-19,Brazil,Raw,Open,,,,,,,,,,,,,,,,D,GLA DIADORES
NS,Doralício Alves,M,1978-11-08,,Raw,Open,,,,,,,,,,,,,,,,D,
NS,Rafael Oliveira,M,1990-01-03,Brazil,Raw,Open,,,,,,,,,,,,,,,,D,GLADIADORES
1,José Calazans Stresser Júnior,M,1993-06-05,Brazil,Raw,Open,67.9,75,,,,,,,,,190,200,-205,200,200,D,TRIBOX
2,Massimo Fontana Becker,M,2014-05-05,Brazil,Raw,Open,72.1,75,,,,,,,,,120,140,155,155,155,D,POWERZONE
1,André Matheus Vieira,M,1994-06-16,Brazil,Raw,Open,80.8,82.5,,,,,,,,,220,240,247.5,247.5,247.5,D,DIAMOND
2,Celso Machado,M,1994-05-11,Brazil,Raw,Open,81.1,82.5,,,,,,,,,200,220,230,230,230,D,TRIBOX
1,Marcos Roberto Scholochaski,M,1988-06-06,Brazil,Raw,Open,95,100,,,,,,,,,240,260,-270,260,260,D,GLADIADORES/VALHALA
1,Livonei Candido,M,1996-07-10,Brazil,Raw,Open,104.9,110,,,,,,,,,210,215,225,225,225,D,
1,Renan Vitor De Andrade Ribeiro,M,1993-06-30,Brazil,Raw,Open,121.8,125,,,,,,,,,210,220,225,225,225,D,NIRVANA BARBELL
1,Massimo Fontana Becker,M,,Brazil,Raw,Sub-Juniors 17-19,72.1,75,,,,,,,,,120,140,155,155,155,D,POWERZONE
2,Alisson Gabriel De França De Aguiar,M,2002-01-27,Brazil,Raw,Sub-Juniors 17-19,70.9,75,,,,,,,,,130,-135,140,140,140,D,TRIBOX
1,Douglas Kaua Pires,M,2006-09-26,Brazil,Raw,Teen 14-16,62.6,67.5,,,,,,,,,130,140,150,150,150,D,TRIBOX
1,Gabriel F. Lima,M,2004-11-17,Brazil,Raw,Teen 14-16,89.9,90,,,,,,,,,150,180,-200,180,180,D,GLADIADORES/VALHALA
1,Wesley Jose Rodrigues,M,2010-07-15,Brazil,Raw,Youth,49.4,52,,,,,,,,,70,80,90,90,90,D,TRIBOX
