Place,WeightClassKg,Division,Sex,Name,BirthYear,Country,BodyweightKg,Squat1Kg,Squat2Kg,Squat3Kg,Best3SquatKg,Bench1Kg,Bench2Kg,Bench3Kg,Best3BenchKg,Deadlift1Kg,Deadlift2Kg,Deadlift3Kg,Best3DeadliftKg,TotalKg,Event,Equipment
1,52,Sub-Juniors,M,Milcho Iankov,1989,Bulgaria,51.4,120,135,145,145,80,90,-95,90,170,-185,-190,170,405,SBD,Single-ply
2,52,Sub-Juniors,M,Ivan Nikolov,1988,Bulgaria,51.6,120,130,140,140,85,-95,100,100,135,150,157.5,157.5,397.5,SBD,Single-ply
3,52,Sub-Juniors,M,Scott Peisley,1989,Australia,51.9,115,122.5,-130,122.5,75,-82.5,82.5,82.5,172.5,180,-195,180,385,SBD,Single-ply
4,52,Sub-Juniors,M,Damarjit Kuchar,1991,Canada,48.2,95,105,-107.5,105,35,40,42.5,42.5,107.5,115,120,120,267.5,SBD,Single-ply
DQ,52,Sub-Juniors,M,Ryan Bachorz,1988,USA,51.4,-165,-165,165,165,-90,-90,90,90,-162.5,-162.5,-162.5,,,SBD,Single-ply
1,56,Sub-Juniors,M,Aliaksei Ryzhko,1988,Belarus,55.8,-170,-170,170,170,-90,90,-97.5,90,-145,145,-157.5,145,405,SBD,Single-ply
2,56,Sub-Juniors,M,Martin Michailov,1991,Bulgaria,55.1,-130,135,150,150,75,85,95,95,130,145,155,155,400,SBD,Single-ply
3,56,Sub-Juniors,M,Robert Castillo,1988,USA,55.6,132.5,-140,140,140,-80,-80,80,80,152.5,165,-172.5,165,385,SBD,Single-ply
4,56,Sub-Juniors,M,Barend Nortje,1990,South Africa,55.6,150,-160,-160,150,-70,-70,70,70,150,160,-170,160,380,SBD,Single-ply
5,56,Sub-Juniors,M,Nicola Prisov,1989,Bulgaria,54.4,-105,115,127.5,127.5,80,90,-97.5,90,125,135,145,145,362.5,SBD,Single-ply
6,56,Sub-Juniors,M,Shunsuke Hidawa,1988,Japan,55.3,110,-130,-130,110,-95,-95,95,95,120,,,120,325,SBD,Single-ply
DQ,56,Sub-Juniors,M,Jacek Olechnio,1990,Poland,55,160,-170,172.5,172.5,-90,-100,-100,,160,172.5,-175,172.5,,SBD,Single-ply
DQ,56,Sub-Juniors,M,Peter Lipcsei,1988,Hungary,55.3,-150,-150,150,150,-110,-110,-110,,150,-160,-167.5,150,,SBD,Single-ply
DQ,56,Sub-Juniors,M,Henri Kontiainen,1989,Finland,55.6,135,145,-150,145,-95,-95,-95,,-175,-175,-175,,,SBD,Single-ply
DQ,56,Sub-Juniors,M,Piotr Krupinski,1988,Poland,55.6,155,165,-170,165,105,-112.5,-112.5,105,-155,-155,-155,,,SBD,Single-ply
1,60,Sub-Juniors,M,Nelson Boutte,1988,USA,58.9,217.5,227.5,-235,227.5,110,120,-125,120,195,-210,217.5,217.5,565,SBD,Single-ply
2,60,Sub-Juniors,M,Atanas Lukanov,1989,Bulgaria,59.7,-185,195,-210,195,105,115,-122.5,115,190,207.5,-220,207.5,517.5,SBD,Single-ply
3,60,Sub-Juniors,M,Alo Kauber,1989,Estonia,59.5,185,-195,-195,185,145,-150,-150,145,-185,185,-190,185,515,SBD,Single-ply
4,60,Sub-Juniors,M,Artur Giczan,1988,Poland,60,180,190,200,200,100,110,-117.5,110,-190,-192.5,192.5,192.5,502.5,SBD,Single-ply
5,60,Sub-Juniors,M,Aleksei Galanov,1988,Estonia,59.1,165,172.5,-180,172.5,100,107.5,-115,107.5,192.5,202.5,-210,202.5,482.5,SBD,Single-ply
6,60,Sub-Juniors,M,Alexandre Grougrou,1988,France,58.9,150,162.5,-172.5,162.5,-110,110,115,115,160,170,180,180,457.5,SBD,Single-ply
7,60,Sub-Juniors,M,Masaki Arai,1988,Japan,58.9,-175,175,-185,175,-90,90,-100,90,175,180,185,185,450,SBD,Single-ply
8,60,Sub-Juniors,M,Aldis Vilumsons,1988,Latvia,60,150,-162.5,162.5,162.5,75,82.5,-87.5,82.5,175,-180,-180,175,420,SBD,Single-ply
DQ,60,Sub-Juniors,M,Vadzim Bizukovich,1989,Belarus,59.5,-210,-210,-210,,107.5,115,122.5,122.5,-190,195,-210,195,,SBD,Single-ply
DQ,60,Sub-Juniors,M,Gagik Adamyan,1989,Armenia,59.8,-175,-175,-175,,,,,,,,,,,SBD,Single-ply
1,67.5,Sub-Juniors,M,Andrey Prokopenko,1988,Kazakhstan,66.6,240,250,260,260,125,-135,135,135,235,250,-262.5,250,645,SBD,Single-ply
2,67.5,Sub-Juniors,M,Valeriy Kuzhakhmetov,1988,Kazakhstan,66.9,-220,220,-240,220,155,-165.5,-165.5,155,235,-252.5,-252.5,235,610,SBD,Single-ply
3,67.5,Sub-Juniors,M,François Pellegrino,1988,France,66.8,207.5,215,222.5,222.5,145,152.5,-157.5,152.5,-220,220,227.5,227.5,602.5,SBD,Single-ply
4,67.5,Sub-Juniors,M,Rostislav Petkov,1988,Bulgaria,67.2,205,225,235,235,130,140,-145,140,205,220,227.5,227.5,602.5,SBD,Single-ply
5,67.5,Sub-Juniors,M,Teiji Morishita,1988,Japan,66.1,200,215,220,220,-120,120,127.5,127.5,200,-210,,200,547.5,SBD,Single-ply
6,67.5,Sub-Juniors,M,Priit Paakspuu,1989,Estonia,67,185,-195,-195,185,-140,-140,140,140,190,200,-210,200,525,SBD,Single-ply
7,67.5,Sub-Juniors,M,Simardeep Virk,1989,Canada,67.1,-210,-210,210,210,90,-97.5,-97.5,90,200,-210,,200,500,SBD,Single-ply
8,67.5,Sub-Juniors,M,Ryusei Fujinami,1988,Japan,65.1,190,-200,-200,190,-110,110,120,120,165,175,-180,175,485,SBD,Single-ply
9,67.5,Sub-Juniors,M,Inus Coetzee,1990,South Africa,66.9,160,170,-180,170,80,-90,-90,80,160,-182.5,-182.5,160,410,SBD,Single-ply
DQ,67.5,Sub-Juniors,M,Johan Smith,1991,South Africa,67.2,-215,-215,-215,,105,-115,,105,190,-207.5,-207.5,190,,SBD,Single-ply
1,75,Sub-Juniors,M,Pieter De Waal #1,1988,South Africa,74.3,220,240,-247.5,240,130,140,147.5,147.5,230,250,257.5,257.5,645,SBD,Single-ply
2,75,Sub-Juniors,M,Raigo Kuusnõmm,1988,Estonia,74.3,210,230,-240,230,145,155,-165,155,240,-255,-255,240,625,SBD,Single-ply
3,75,Sub-Juniors,M,Adam Citko,1988,Poland,73.5,225,235,-245,235,140,147.5,-155,147.5,215,230,-242.5,230,612.5,SBD,Single-ply
4,75,Sub-Juniors,M,Andrew Hollenbeck,1989,USA,74.2,210,-217.5,-217.5,210,152.5,-165,-165,152.5,227.5,-235,235,235,597.5,SBD,Single-ply
5,75,Sub-Juniors,M,Vladimir Kütt,1988,Estonia,73.5,195,205,212.5,212.5,135,-145,-145,135,-232.5,232.5,245,245,592.5,SBD,Single-ply
6,75,Sub-Juniors,M,Yevgeniy Ilyev,1989,Kazakhstan,74,210,230,-245,230,110,120,122.5,122.5,230,-247.5,-247.5,230,582.5,SBD,Single-ply
7,75,Sub-Juniors,M,Andrean Andreev,1989,Bulgaria,74.2,190,205,210,210,140,-145,145,145,190,210,225,225,580,SBD,Single-ply
8,75,Sub-Juniors,M,Borislav Kolev,1989,Bulgaria,74.4,200,215,225,225,130,140,-145,140,200,215,-225,215,580,SBD,Single-ply
9,75,Sub-Juniors,M,Ján Schwarz,1988,Slovakia,72.2,-210,-210,210,210,105,-110,-110,105,230,-237.5,-242.5,230,545,SBD,Single-ply
10,75,Sub-Juniors,M,Trent Williams,1988,New Zealand,72.5,190,-212.5,-212.5,190,150,-170,-170,150,190,-210,-210,190,530,SBD,Single-ply
11,75,Sub-Juniors,M,Matthys De Wet,1990,South Africa,71.4,110,120,125,125,60,70,-80,70,125,145,160,160,355,SBD,Single-ply
DQ,75,Sub-Juniors,M,Bernhard Skoglund,1988,Sweden,72.9,-215,220,-230,220,-145,-145,-145,,205,215,222.5,222.5,,SBD,Single-ply
DQ,75,Sub-Juniors,M,Leon Koschnik,1988,Germany,74.6,-222.5,-230,-232.5,,140,145,-147.5,145,225,237.5,242.5,242.5,,SBD,Single-ply
1,82.5,Sub-Juniors,M,Kirill Pavlenko,1988,Kazakhstan,78.8,250,270,285,285,150,-160,-160,150,250,265,270,270,705,SBD,Single-ply
2,82.5,Sub-Juniors,M,Rait Sagor,1990,Estonia,80.9,-210,210,-220,210,-145,145,155,155,250,260,270,270,635,SBD,Single-ply
3,82.5,Sub-Juniors,M,Justin Tuinstra,1988,USA,80.8,222.5,232.5,242.5,242.5,147.5,-155,157.5,157.5,210,220,232.5,232.5,632.5,SBD,Single-ply
4,82.5,Sub-Juniors,M,Mikita Kazunko,1989,Belarus,77.7,207.5,215,220,220,145,155,160,160,210,222.5,-232.5,222.5,602.5,SBD,Single-ply
5,82.5,Sub-Juniors,M,Samuel Tomasovic,1989,Slovakia,81.8,220,-230,-232.5,220,-130,130,-140,130,-232.5,232.5,237.5,237.5,587.5,SBD,Single-ply
6,82.5,Sub-Juniors,M,Vili Honkanen,1989,Finland,81.4,200,-210,-210,200,165,-170,-170,165,220,-240,-240,220,585,SBD,Single-ply
7,82.5,Sub-Juniors,M,Benjamin Varonen,1988,Finland,80.6,220,230,-235,230,120,-130,-130,120,225,-235,-235,225,575,SBD,Single-ply
8,82.5,Sub-Juniors,M,Imants Sokolovs,1989,Latvia,81.8,215,225,-235,225,-135,135,-140,135,215,-220,,215,575,SBD,Single-ply
9,82.5,Sub-Juniors,M,Michael Tullis,1988,USA,82.2,177.5,190,200,200,122.5,130,-135,130,215,227.5,235,235,565,SBD,Single-ply
10,82.5,Sub-Juniors,M,Gary Douglas,1989,South Africa,75.7,215,-225,225,225,100,107.5,-112.5,107.5,190,205,-210,205,537.5,SBD,Single-ply
11,82.5,Sub-Juniors,M,Danielilie Sorcoi,1988,Romania,81.2,-175,185,-200,185,110,122.5,-127.5,122.5,200,215,-225,215,522.5,SBD,Single-ply
12,82.5,Sub-Juniors,M,Hikari Nabekura,1989,Japan,81.9,175,-185,185,185,117.5,122.5,-125,122.5,185,195,207.5,207.5,515,SBD,Single-ply
13,82.5,Sub-Juniors,M,Yoshinori Nagatsuka,1988,Japan,79.7,180,-190,-190,180,-120,120,-135,120,200,-210,-210,200,500,SBD,Single-ply
14,82.5,Sub-Juniors,M,Tyrone Delaney,1990,South Africa,82.2,165,-190,-205,165,120,135,-145,135,180,-200,200,200,500,SBD,Single-ply
15,82.5,Sub-Juniors,M,Daniel Balazs,1988,Hungary,79,140,150,160,160,95,-105,-107.5,95,180,190,200,200,455,SBD,Single-ply
1,90,Sub-Juniors,M,Efim Naniev,1988,Uzbekistan,89.4,240,275,-280,275,155,-172.5,172.5,172.5,260,277.5,287.5,287.5,735,SBD,Single-ply
2,90,Sub-Juniors,M,Ali Ben Hadj Ali,1989,France,88.4,255,-272.5,-285,255,155,-165,165,165,255,275,-285,275,695,SBD,Single-ply
3,90,Sub-Juniors,M,Chase Favre,1988,USA,88.3,230,242.5,-247.5,242.5,140,152.5,-157.5,152.5,235,257.5,-272.5,257.5,652.5,SBD,Single-ply
4,90,Sub-Juniors,M,Mike Roddick,1989,New Zealand,87.3,180,195,-200,195,120,-125,125,125,185,207.5,-220,207.5,527.5,SBD,Single-ply
5,90,Sub-Juniors,M,Kenji Takemasa,1988,Japan,88.8,205,-215,-215,205,105,-115,-125,105,205,215,-230,215,525,SBD,Single-ply
6,90,Sub-Juniors,M,Chris Schoonraad,1989,South Africa,83.1,170,-200,200,200,110,125,-140,125,-165,165,-175,165,490,SBD,Single-ply
7,90,Sub-Juniors,M,Daniel Juhasz,1989,Hungary,82.6,150,160,-170,160,125,135,-152.5,135,180,-202.5,-205,180,475,SBD,Single-ply
DQ,90,Sub-Juniors,M,Marcin Bielski,1988,Poland,89.3,265,280,290,290,-160,-160,-160,,260,275,285,285,,SBD,Single-ply
DQ,90,Sub-Juniors,M,Iļja Hacko,1988,Latvia,90,-260,-260,-260,,-150,-150,-162.5,,-262.5,-262.5,-272.5,,,SBD,Single-ply
1,100,Sub-Juniors,M,Tomas Sundström,1988,Sweden,90.1,275,290,-300,290,160,172.5,-180,172.5,245,250,262.5,262.5,725,SBD,Single-ply
2,100,Sub-Juniors,M,Brandon Fiebiger,1988,USA,97.9,-250,250,257.5,257.5,132.5,142.5,-147.5,142.5,265,270,277.5,277.5,677.5,SBD,Single-ply
3,100,Sub-Juniors,M,Bartosz Zaiaczkowski,1989,Poland,92.6,220,240,-260,240,140,150,-155,150,220,-265,-282.5,220,610,SBD,Single-ply
4,100,Sub-Juniors,M,Masashi Yamaguchi,1989,Japan,99.2,190,200,205,205,140,-150,155,155,170,190,-200,190,550,SBD,Single-ply
DQ,100,Sub-Juniors,M,Ryan Rowsall,1988,Canada,95.9,237.5,250,-257.5,250,-200,-200,-200,,,,,,,SBD,Single-ply
DQ,100,Sub-Juniors,M,Søren Mølgaard,1988,Denmark,99.8,-305,-305,-305,,-210,-210,210,210,240,247.5,255,255,,SBD,Single-ply
1,110,Sub-Juniors,M,Matiss Peca,1988,Latvia,100.1,-280,290,-300,290,-135,135,-180,135,240,260,-277.5,260,685,SBD,Single-ply
2,110,Sub-Juniors,M,Alex Mullins,1988,USA,101.4,222.5,245,-255,245,185,-195,-195,185,222.5,240,-245,240,670,SBD,Single-ply
3,110,Sub-Juniors,M,Given Zurawski Dariusz,1988,Poland,100.4,230,-245,-250,230,140,-175,-190,140,240,275,-300,275,645,SBD,Single-ply
4,110,Sub-Juniors,M,Ferenc Kovacs,1988,Hungary,108.3,225,-235,235,235,175,-190,190,190,-210,220,-242.5,220,645,SBD,Single-ply
5,110,Sub-Juniors,M,Richard Singh,1988,Canada,107.9,-220,225,-237.5,225,145,-155,-155,145,185,,,185,555,SBD,Single-ply
DQ,110,Sub-Juniors,M,Dane Richa,1988,South Africa,106.7,-250,-250,252.5,252.5,-140,-140,-140,,210,-242.5,-242.5,210,,SBD,Single-ply
1,125,Sub-Juniors,M,Jakub Smejkal,1988,Czechia,115.1,-250,250,280,280,-175,175,185,185,280,300,305,305,770,SBD,Single-ply
2,125,Sub-Juniors,M,Martii Harjapaa,1988,Finland,121.4,-255,255,-267.5,255,-150,-150,150,150,285,290,-302.5,290,695,SBD,Single-ply
3,125,Sub-Juniors,M,Daniel Flonta,1988,USA,111,255,-265,-265,255,180,187.5,-192.5,187.5,247.5,-252.5,-257.5,247.5,690,SBD,Single-ply
4,125,Sub-Juniors,M,Timo Ruotsalainen,1990,Finland,111.1,260,280,-300,280,145,-155,-155,145,220,-240,-240,220,645,SBD,Single-ply
5,125,Sub-Juniors,M,Ferenc Vogel,1988,Hungary,123.6,200,-230,-230,200,-195,195,-210,195,200,220,235,235,630,SBD,Single-ply
1,125+,Sub-Juniors,M,Jani Rainela,1988,Finland,164.7,325,-340,-340,325,215,232.5,-242.5,232.5,230,260,267.5,267.5,825,SBD,Single-ply
2,125+,Sub-Juniors,M,Jacob Cannon,1988,USA,133.8,-285,285,-305,285,195,-207.5,-207.5,195,242.5,252.5,262.5,262.5,742.5,SBD,Single-ply
3,125+,Sub-Juniors,M,Brandon Carr,1989,Australia,144.9,-240,250,-275,250,-185,185,-210,185,225,-240,-265,225,660,SBD,Single-ply
1,44,Sub-Juniors,F,Stephanie Seebruck,1990,USA,43.4,95,102.5,107.5,107.5,-42.5,42.5,47.5,47.5,100,110,115,115,270,SBD,Single-ply
2,44,Sub-Juniors,F,Katarina Skirkanicova,1990,Slovakia,43.4,95,105,110,110,47.5,-52.5,52.5,52.5,100,105,-112.5,105,267.5,SBD,Single-ply
3,44,Sub-Juniors,F,Yasuko Miki,1990,Japan,42.9,70,-80,-80,70,-50,50,-55,50,70,80,-85,80,200,SBD,Single-ply
4,44,Sub-Juniors,F,Victoria Fadgyas,1991,Hungary,43.6,-65,65,-70,65,40,-50,50,50,65,-75,-75,65,180,SBD,Single-ply
5,44,Sub-Juniors,F,Yulia Murashka,1991,Belarus,43.2,55,65,-70,65,32.5,-37.5,-37.5,32.5,67.5,72.5,-82.5,72.5,170,SBD,Single-ply
1,48,Sub-Juniors,F,Kendra Miller,1992,USA,45.6,117.5,125,-132.5,125,60,65,67.5,67.5,117.5,127.5,-137.5,127.5,320,SBD,Single-ply
2,48,Sub-Juniors,F,Zhadira Zaripova,1989,Kazakhstan,46.2,112.5,122.5,130,130,42.5,50,-55,50,-107.5,110,120,120,300,SBD,Single-ply
3,48,Sub-Juniors,F,Allison Sandlin,1988,USA,46.8,-115,-115,115,115,55,62.5,67.5,67.5,107.5,112.5,117.5,117.5,300,SBD,Single-ply
4,48,Sub-Juniors,F,Yu Inoue,1988,Japan,45.9,-105,105,-120,105,70,-80,-80,70,100,110,120,120,295,SBD,Single-ply
1,52,Sub-Juniors,F,Magdalena Zarzycka,1988,Poland,51.6,115,120,125,125,42.5,-52.5,52.5,52.5,105,112.5,-122.5,112.5,290,SBD,Single-ply
2,52,Sub-Juniors,F,Ivana Porubska,1991,Slovakia,48.3,95,-102.5,107.5,107.5,57.5,-62.5,65,65,95,102.5,-107.5,102.5,275,SBD,Single-ply
3,52,Sub-Juniors,F,Alyssa Benkhelifa,1988,France,51.8,100,-112.5,-112.5,100,50,-52.5,55,55,85,95,-107.5,95,250,SBD,Single-ply
4,52,Sub-Juniors,F,Misato Okamura,1988,Japan,50.2,70,72.5,85,85,40,45,-52.5,45,-95,-100,100,100,230,SBD,Single-ply
DQ,52,Sub-Juniors,F,Andreea Muntean Corina,1988,Romania,50.7,-90,-90,-90,,45,50,-52.5,50,100,105,110,110,,SBD,Single-ply
DQ,52,Sub-Juniors,F,Katie Van Dusen,1988,USA,50.8,-145,-145,-145,,70,77.5,80,80,125,135,142.5,142.5,,SBD,Single-ply
1,56,Sub-Juniors,F,Peyshy Gian,1988,Sweden,53,120,130,137.5,137.5,72.5,-80,-80,72.5,130,140,-147.5,140,350,SBD,Single-ply
2,56,Sub-Juniors,F,Tatsiana Peatrouskaya,1992,Belarus,55,110,-120,-125,110,55,60,-65,60,115,122.5,-130,122.5,292.5,SBD,Single-ply
3,56,Sub-Juniors,F,Momoko Sugo,1990,Japan,53.3,100,-120,-120,100,60,65,-70,65,115,125,-130,125,290,SBD,Single-ply
4,56,Sub-Juniors,F,Marina Watanabe,1989,Japan,53.6,100,107.5,110,110,60,67.5,70,70,110,-117.5,-117.5,110,290,SBD,Single-ply
DQ,56,Sub-Juniors,F,Kimberly Douglas,1990,USA,52.9,-130,-130,-130,,72.5,77.5,80,80,137.5,-145,-145,137.5,,SBD,Single-ply
1,60,Sub-Juniors,F,Júlia Kostúrová,1989,Slovakia,60,135,-140,140,140,80,85,90,90,132.5,135,140,140,370,SBD,Single-ply
2,60,Sub-Juniors,F,Suzanne Salinas,1988,USA,56.1,-132.5,132.5,-137.5,132.5,72.5,-77.5,77.5,77.5,127.5,137.5,142.5,142.5,352.5,SBD,Single-ply
1,67.5,Sub-Juniors,F,Desiree Marin,1990,USA,64.1,-142.5,142.5,147.5,147.5,80,-87.5,87.5,87.5,137.5,145,-152.5,145,380,SBD,Single-ply
2,67.5,Sub-Juniors,F,Natasha Armstrong,1989,New Zealand,66.6,125,137.5,-140,137.5,65,-72.5,-72.5,65,120,135,-150,135,337.5,SBD,Single-ply
3,67.5,Sub-Juniors,F,Eva Jezkova,1989,Slovakia,62.1,-122.5,-122.5,122.5,122.5,60,65,72.5,72.5,125,130,135,135,330,SBD,Single-ply
4,67.5,Sub-Juniors,F,Miharu Asaoka,1988,Japan,60.9,85,95,105,105,-50,50,60,60,100,110,-120,110,275,SBD,Single-ply
5,67.5,Sub-Juniors,F,Cecile Smith May,1992,South Africa,65.6,95,-105,-105,95,-45,45,-50,45,95,105,-117.5,105,245,SBD,Single-ply
1,75,Sub-Juniors,F,Rhaea Stinn,1988,Canada,71.2,170,180,-187.5,180,105,110,112.5,112.5,165,175,-182.5,175,467.5,SBD,Single-ply
2,75,Sub-Juniors,F,Kasa Schroer,1989,USA,67.9,130,140,145,145,80,90,95,95,125,132.5,-142.5,132.5,372.5,SBD,Single-ply
3,75,Sub-Juniors,F,Marzena Wierzbicka,1989,Poland,67.6,120,130,-140,130,65,-70,-70,65,130,140,142.5,142.5,337.5,SBD,Single-ply
4,75,Sub-Juniors,F,Alexandra Tichy,1990,Austria,74.6,-120,120,130,130,80,85,87.5,87.5,115,-120,120,120,337.5,SBD,Single-ply
5,75,Sub-Juniors,F,Chantel de Wet,1988,South Africa,67.9,120,-130,130,130,45,52.5,57.5,57.5,120,130,142.5,142.5,330,SBD,Single-ply
6,75,Sub-Juniors,F,Yuri Takayama,1988,Japan,67.7,100,-110,-115,100,45,-50,50,50,100,110,-112.5,110,260,SBD,Single-ply
1,82.5,Sub-Juniors,F,Malwina Ciesielkska,1988,Poland,75.7,100,120,-130,120,65,72.5,75,75,115,-132.5,132.5,132.5,327.5,SBD,Single-ply
2,82.5,Sub-Juniors,F,Aurelia Cistelecan Armina,1988,Romania,75.3,80,-110,-110,80,-35,35,45,45,90,105,115,115,240,SBD,Single-ply
1,90,Sub-Juniors,F,Ashley Kueffer,1989,USA,84.9,147.5,-160,-160,147.5,95,112.5,-123.5,112.5,127.5,140,-145,140,400,SBD,Single-ply
2,90,Sub-Juniors,F,Marta Bacskay,1990,Hungary,88,-100,100,110,110,85,90,-95,90,130,135,-145,135,335,SBD,Single-ply
1,90+,Sub-Juniors,F,Lana Allen,1988,USA,129.7,177.5,195,207.5,207.5,110,120,138,138,150,-165,165,165,510.5,SBD,Single-ply
2,90+,Sub-Juniors,F,Patrycja Twers,1989,Poland,104.5,120,150,170,170,80,-87.5,87.5,87.5,140,170,-190,170,427.5,SBD,Single-ply
1,52,Juniors,M,Yuki Ozeki,1984,Japan,50.9,140,150,155,155,105,115,120,120,140,150,-155,150,425,SBD,Single-ply
2,52,Juniors,M,Robert Tracz,1985,Poland,51.6,-145,145,155,155,90,-95,95,95,155,-167.5,-177.5,155,405,SBD,Single-ply
DQ,52,Juniors,M,Sandor Roman,1983,Hungary,51.6,125,-130,-132.5,125,-80,-80,-80,,130,140,-157.5,140,,SBD,Single-ply
1,56,Juniors,M,Tomasz Zambrzycki,1985,Poland,55.9,200,-210,-210,200,105,110,112.5,112.5,195,202.5,-212.5,202.5,515,SBD,Single-ply
2,56,Juniors,M,Yasumasa Oishi,1987,Japan,54.2,175,-190,-190,175,120,135,-140,135,185,200,-212.5,200,510,SBD,Single-ply
3,56,Juniors,M,Turar Tenelov,1984,Kazakhstan,55.7,180,-190,190,190,110,117.5,122.5,122.5,175,190,195,195,507.5,SBD,Single-ply
4,56,Juniors,M,Milen Lukanov,1986,Bulgaria,55.4,175,190,-200,190,85,95,102.5,102.5,180,195,202.5,202.5,495,SBD,Single-ply
1,60,Juniors,M,Mike Haffenbrack,1984,USA,59,-207.5,207.5,215,215,120,130,135,135,205,212.5,217.5,217.5,567.5,SBD,Single-ply
2,60,Juniors,M,Rémi Bhang,1984,France,59.4,-215,222.5,-230,222.5,115,122.5,-127.5,122.5,215,-220,-225,215,560,SBD,Single-ply
3,60,Juniors,M,Krasimir Kondov,1984,Bulgaria,59.9,-170,180,190,190,135,145,152.5,152.5,185,200,207.5,207.5,550,SBD,Single-ply
4,60,Juniors,M,Aman Kapyshev,1987,Kazakhstan,59.5,210,-217.5,-217.5,210,130,140,147.5,147.5,190,-195,-195,190,547.5,SBD,Single-ply
5,60,Juniors,M,Gyula Mozer,1986,Hungary,59,130,150,-160,150,-120,120,130,130,140,160,175,175,455,SBD,Single-ply
6,60,Juniors,M,Sandis Melngāršs,1983,Latvia,60,-160,160,170,170,80,87.5,-90,87.5,175,185,-200,185,442.5,SBD,Single-ply
DQ,60,Juniors,M,Karol Murawski,1983,Poland,59.4,-190,-190,-190,,120,125,-132.5,125,190,200,-207.5,200,,SBD,Single-ply
1,67.5,Juniors,M,Rafal Ziemiakowski,1984,Poland,67.1,245,-255,-255,245,155,160,165,165,225,235,242.5,242.5,652.5,SBD,Single-ply
2,67.5,Juniors,M,Marc Polster,1986,Germany,67.1,230,245,-250,245,-140,140,-145,140,220,230,-237.5,230,615,SBD,Single-ply
3,67.5,Juniors,M,Petteri Keränen,1987,Finland,66.4,-217.5,225,-235,225,-142.5,147.5,-155,147.5,-225,-225,235,235,607.5,SBD,Single-ply
4,67.5,Juniors,M,Thomas Korell,1983,Germany,67,220,230,-240,230,142.5,147.5,-150,147.5,220,230,-240,230,607.5,SBD,Single-ply
5,67.5,Juniors,M,Kenji Hironaga,1984,Japan,67.3,200,210,-220,210,165,-170,-170,165,205,-215,-232.5,205,580,SBD,Single-ply
6,67.5,Juniors,M,Jonathan Kariv,1985,South Africa,65.3,-190,-190,190,190,145,150,155,155,190,200,-205,200,545,SBD,Single-ply
DD,67.5,Juniors,M,Timur Khakimdjanov,1987,Uzbekistan,66.9,240,252.5,-260,252.5,120,130,-135,130,210,220,-232.5,220,,SBD,Single-ply
1,75,Juniors,M,Konstantin Fairushin,1985,Kazakhstan,73.8,-260,260,270,270,160,167.5,172.5,172.5,270,285,292.5,292.5,735,SBD,Single-ply
2,75,Juniors,M,David Hammers,1983,USA,74.7,-252.5,252.5,-262.5,252.5,180,187.5,195,195,240,250,-255,250,697.5,SBD,Single-ply
3,75,Juniors,M,Josh Rohr,1983,USA,74.9,-252.5,-252.5,252.5,252.5,140,147.5,-152.5,147.5,265,275,282.5,282.5,682.5,SBD,Single-ply
4,75,Juniors,M,Toru Miyake,1985,Japan,74.6,230,-245,-245,230,210,220,230,230,200,220,-230,220,680,SBD,Single-ply
5,75,Juniors,M,Evaldas Paplauskas,1984,Lithuania,74.3,240,-252.5,-252.5,240,190,197.5,-205,197.5,240,-250,-250,240,677.5,SBD,Single-ply
6,75,Juniors,M,Alexandr Romanenko,1984,Uzbekistan,74.3,235,242.5,-250,242.5,150,157.5,-162.5,157.5,255,-265,-265,255,655,SBD,Single-ply
7,75,Juniors,M,Daniel Young #4,1986,Canada,74.5,-250,250,-255,250,135,142.5,-155,142.5,225,240,-247.5,240,632.5,SBD,Single-ply
8,75,Juniors,M,Martin Macko,1984,Slovakia,73.9,-220,-220,220,220,130,150,160,160,230,-250,-250,230,610,SBD,Single-ply
9,75,Juniors,M,Koji Yagi,1985,Japan,74.4,210,220,-235,220,170,-180,-180,170,220,-235,-235,220,610,SBD,Single-ply
10,75,Juniors,M,Michel Ehrlicher,1985,Germany,70,200,210,215,215,120,-125,-125,120,215,232.5,-250,232.5,567.5,SBD,Single-ply
DQ,75,Juniors,M,Kailey Raghoenathsing,1983,Netherlands,75,-220,220,-240,220,140,147.5,152.5,152.5,-230,-230,-230,,,SBD,Single-ply
1,82.5,Juniors,M,Dmitriy Zinovyev,1984,Kazakhstan,81.9,270,282.5,290,290,210,220,-225,220,280,-295,-295,280,790,SBD,Single-ply
2,82.5,Juniors,M,André Hentschel,1984,Germany,82.3,265,280,-287.5,280,210,-220,220,220,235,247.5,260,260,760,SBD,Single-ply
3,82.5,Juniors,M,Bartłomiej Szymkowiak,1984,Poland,80.6,290,310,-320,310,-140,140,145,145,270,-280,-280,270,725,SBD,Single-ply
4,82.5,Juniors,M,Henrik Skov Nielsen,1984,Denmark,82.5,-280,-280,290,290,-162.5,162.5,-167.5,162.5,250,260,-275,260,712.5,SBD,Single-ply
5,82.5,Juniors,M,Johannes Dahl,1983,Sweden,82.1,-265,265,-280,265,165,-175,-175,165,260,275,-282.5,275,705,SBD,Single-ply
6,82.5,Juniors,M,Travis Godawa,1984,USA,82,275,287.5,-295,287.5,170,-180,-180,170,245,-257.5,-257.5,245,702.5,SBD,Single-ply
7,82.5,Juniors,M,Yuki Sato,1983,Japan,82.4,200,220,-232.5,220,215,222.5,-227.5,222.5,175,222.5,-240,222.5,665,SBD,Single-ply
8,82.5,Juniors,M,Ilia Ognianov,1986,Bulgaria,80.6,205,225,245,245,155,165,-175,165,205,225,245,245,655,SBD,Single-ply
9,82.5,Juniors,M,Marcel Ortlepp,1983,Germany,80.8,225,-235,235,235,160,170,175,175,225,235,-240,235,645,SBD,Single-ply
10,82.5,Juniors,M,Andras Odor,1985,Hungary,80.9,200,220,230,230,155,165,172.5,172.5,210,230,235,235,637.5,SBD,Single-ply
11,82.5,Juniors,M,Dincer Tarik,1987,Netherlands,81.4,190,205,215,215,130,140,-145,140,205,225,-235,225,580,SBD,Single-ply
DQ,82.5,Juniors,M,Lukasz Michalowski,1985,Poland,82,260,270,-280,270,-180,-180,-180,,240,255,-275,255,,SBD,Single-ply
1,90,Juniors,M,Christo Christov,1984,Bulgaria,89.9,280,305,-310,305,160,170,175,175,310,322.5,325,325,805,SBD,Single-ply
2,90,Juniors,M,Tomáš Urban,1985,Czechia,89.4,295,307.5,317.5,317.5,190,-202.5,202.5,202.5,270,280,-282.5,280,800,SBD,Single-ply
3,90,Juniors,M,Dan Williams #1,1983,USA,87.5,290,-305,-310,290,-187.5,-187.5,187.5,187.5,292.5,312.5,-325,312.5,790,SBD,Single-ply
4,90,Juniors,M,Zdravko Sarafimov,1984,Bulgaria,88.7,280,-300,300,300,-195,195,-202.5,195,-280,290,-305,290,785,SBD,Single-ply
5,90,Juniors,M,Toshiteru Okamura,1983,Japan,89.3,260,285,-300,285,210,217.5,-225,217.5,270,-285,-285,270,772.5,SBD,Single-ply
6,90,Juniors,M,Maciei Sochacki,1985,Poland,85.5,255,265,270,270,170,180,185,185,255,270,-290,270,725,SBD,Single-ply
7,90,Juniors,M,Juhani Salo,1984,Finland,89.2,-270,270,-290,270,145,152.5,-160,152.5,285,-295,-295,285,707.5,SBD,Single-ply
8,90,Juniors,M,Jonathan Albritton,1984,USA,90,245,255,-262.5,255,175,-185,-185,175,230,242.5,-255,242.5,672.5,SBD,Single-ply
9,90,Juniors,M,Ville Pikkarainen,1984,Finland,83,240,260,,260,100,-115,120,120,-200,220,-260,220,600,SBD,Single-ply
DQ,90,Juniors,M,Nozomu Yoshikawa,1983,Japan,84.1,-227.5,-227.5,-227.5,,-200,200,-207.5,200,200,215,225,225,,SBD,Single-ply
DQ,90,Juniors,M,Dmitriy Vorona,1983,Kazakhstan,88.7,280,295,-315,295,,,,,,,,,,SBD,Single-ply
DQ,90,Juniors,M,Eban Traeger,1984,Australia,89.6,275,-290,-290,275,-170,-170,-170,,,,,,,SBD,Single-ply
1,100,Juniors,M,Magnus Önerud,1986,Sweden,99.9,-310,310,330,330,195,-200,200,200,280,300,310,310,840,SBD,Single-ply
2,100,Juniors,M,Vasil Yanchev,1985,Bulgaria,99.5,300,320,330,330,-160,160,,160,300,315,-335,315,805,SBD,Single-ply
3,100,Juniors,M,John MacDonald #1,1983,Canada,99.5,280,295,300,300,205,-212.5,212.5,212.5,265,277.5,-295,277.5,790,SBD,Single-ply
4,100,Juniors,M,Witold Krawczyk,1985,Poland,98.6,-290,290,-300,290,195,207.5,-212.5,207.5,275,-285,-292.5,275,772.5,SBD,Single-ply
5,100,Juniors,M,Tomi Muhonen,1983,Finland,99.6,290,-305,-310,290,-200,-200,200,200,260,275,-285,275,765,SBD,Single-ply
6,100,Juniors,M,Derek Brixius,1985,USA,97.5,265,280,287.5,287.5,202.5,-210,-210,202.5,260,272.5,-282.5,272.5,762.5,SBD,Single-ply
7,100,Juniors,M,Dimo Benev,1983,Bulgaria,97.3,-260,260,-280,260,175,185,195,195,240,-255,-255,240,695,SBD,Single-ply
8,100,Juniors,M,Teruaki Iwahashi,1984,Japan,93.2,227.5,245,-257.5,245,155,-165,165,165,240,260,272.5,272.5,682.5,SBD,Single-ply
9,100,Juniors,M,Euraima Tobias,1986,South Africa,96.2,180,250,-270,250,145,-152.5,-170,145,-250,250,-290,250,645,SBD,Single-ply
10,100,Juniors,M,Rayon Williams,1987,New Zealand,97.7,-220,220,-240,220,170,-185,-185,170,220,240,-252.5,240,630,SBD,Single-ply
11,100,Juniors,M,Francis Shawn,1983,Canada,96.2,210,-215,-220,210,165,172.5,-180,172.5,230,-240,-240,230,612.5,SBD,Single-ply
DQ,100,Juniors,M,Yosuke Nishikawa,1985,Japan,95.5,-265,-265,-265,,140,,,140,280,290,295,295,,SBD,Single-ply
1,110,Juniors,M,Jessie Betzinger,1984,USA,104.7,320,335,-345,335,-200,-200,200,200,275,295,-300,295,830,SBD,Single-ply
2,110,Juniors,M,Eirik Jørgensen,1983,Norway,108.5,260,270,277.5,277.5,180,-185,185,185,280,290,297.5,297.5,760,SBD,Single-ply
3,110,Juniors,M,Krasimir Krachunov,1985,Bulgaria,104.8,270,290,292.5,292.5,150,165,175,175,260,282.5,-297.5,282.5,750,SBD,Single-ply
DQ,110,Juniors,M,Aleksandrs Grigorjevs,1985,Latvia,109.3,-350,-350,-350,,220,-240,240,240,-300,-300,300,300,,SBD,Single-ply
DD,110,Juniors,M,Łukasz Toczylowski,1985,Poland,108.9,340,-360,-360,340,230,-250,250,250,300,320,-330,320,,SBD,Single-ply
1,125,Juniors,M,Michael Tuchscherer,1985,USA,121.1,330,-350,350,350,245,-265,265,265,300,320,340,340,955,SBD,Single-ply
2,125,Juniors,M,Sami Pullinen,1983,Finland,114.6,290,305,-315,305,267.5,277.5,282.5,282.5,260,272.5,282.5,282.5,870,SBD,Single-ply
3,125,Juniors,M,Jonathon Krogman,1986,USA,123.3,327.5,345,-355,345,210,-222.5,-222.5,210,287.5,307.5,-320,307.5,862.5,SBD,Single-ply
4,125,Juniors,M,Jason Byrne #1,1984,Canada,120.3,305,320,-327.5,320,210,220,222.5,222.5,300,310,-320,310,852.5,SBD,Single-ply
5,125,Juniors,M,Stanley Du Plessis,1984,South Africa,111.5,-300,310,-325,310,130,-165,180,180,250,-302.5,-302.5,250,740,SBD,Single-ply
6,125,Juniors,M,Eugen Schneider,1986,Germany,120.2,270,-285,-285,270,-165,170,177.5,177.5,260,275,-280,275,722.5,SBD,Single-ply
7,125,Juniors,M,Masaharu Indo,1984,Japan,123.7,260,280,-290,280,-220,220,-230,220,-220,220,-242.5,220,720,SBD,Single-ply
1,125+,Juniors,M,Jewgenij Kondraschow,1983,Germany,134.6,350,375,-385,375,250,265,272.5,272.5,315,335,362.5,362.5,1010,SBD,Single-ply
2,125+,Juniors,M,Sigfús Þorgeir Fossdal,1983,Iceland,134.8,300,-325,-330,300,235,-245,-252.5,235,280,302.5,305,305,840,SBD,Single-ply
DD,125+,Juniors,M,Chris Dranias,1984,South Africa,147.5,-370,370,-385,370,200,-210,210,210,350,-370,-370,350,,SBD,Single-ply
1,44,Juniors,F,Yukari Yamakami,1985,Japan,40,80,-90,-90,80,-50,-50,50,50,80,90,-92.5,90,220,SBD,Single-ply
1,48,Juniors,F,Tomoe Nishikawa,1983,Japan,47.5,105,120,127.5,127.5,55,60,65,65,130,145,155,155,347.5,SBD,Single-ply
2,48,Juniors,F,Anastasiya Kolisnikova,1987,Kazakhstan,47.8,125,-135,135,135,-55,57.5,60,60,140,145,-155,145,340,SBD,Single-ply
3,48,Juniors,F,Anna Vasina,1985,Uzbekistan,48,-115,115,125,125,45,52.5,-60,52.5,115,125,132.5,132.5,310,SBD,Single-ply
4,48,Juniors,F,Yukie Kuroda,1985,Japan,47.7,-105,-105,105,105,50,55,-60,55,95,105,-110,105,265,SBD,Single-ply
1,52,Juniors,F,Naho Machida,1983,Japan,51.7,-125,-125,125,125,60,-65,-65,60,150,-160,-160,150,335,SBD,Single-ply
2,52,Juniors,F,Justyna Gertich,1986,Poland,52,-100,-100,100,100,65,-67.5,-67.5,65,120,130,135,135,300,SBD,Single-ply
3,52,Juniors,F,Dorota Nowak,1983,Poland,50.2,95,105,-110,105,67.5,72.5,75,75,107.5,115,-122.5,115,295,SBD,Single-ply
4,52,Juniors,F,Brandy Smith,1986,USA,48.9,102.5,-105,105,105,50,57.5,60,60,125,-132.5,-132.5,125,290,SBD,Single-ply
1,56,Juniors,F,Eleonora Makhpirova,1986,Kazakhstan,54.9,170,177.5,182.5,182.5,85,95,-102.5,95,150,165,-170,165,442.5,SBD,Single-ply
2,56,Juniors,F,Cécile Courqueux,1983,France,55.8,-155,-155,160,160,62.5,67.5,72.5,72.5,147.5,157.5,-170,157.5,390,SBD,Single-ply
3,56,Juniors,F,Minako Kaneda,1984,Japan,52.2,120,130,-140,130,80,-90,-90,80,150,-155,-155,150,360,SBD,Single-ply
4,56,Juniors,F,Chiharu Yamazaki,1984,Japan,53.9,105,115,125,125,65,-72.5,-72.5,65,115,130,-135,130,320,SBD,Single-ply
5,56,Juniors,F,Odile Collard,1986,France,55.6,122.5,130,-137.5,130,52.5,60,-62.5,60,120,-130,-130,120,310,SBD,Single-ply
6,56,Juniors,F,Natalie Miller-Woods,1983,USA,55.5,-115,115,-127.5,115,57.5,-62.5,-62.5,57.5,120,132.5,-137.5,132.5,305,SBD,Single-ply
DQ,56,Juniors,F,Susse Hougaard,1984,Denmark,55.6,-125,-132.5,-132.5,,95,100,-105,100,135,142.5,152.5,152.5,,SBD,Single-ply
1,60,Juniors,F,Katarina Gerjakova,1983,Slovakia,59.8,150,157.5,-162.5,157.5,85,90,-92.5,90,140,150,162.5,162.5,410,SBD,Single-ply
2,60,Juniors,F,Jenna Farek,1985,USA,59.9,140,145,152.5,152.5,77.5,87.5,90,90,147.5,157.5,-170,157.5,400,SBD,Single-ply
3,60,Juniors,F,Christin Toepler,1983,Germany,59,-152.5,152.5,-157.5,152.5,87.5,-92.5,92.5,92.5,140,150,-155,150,395,SBD,Single-ply
4,60,Juniors,F,Ebony Rutko,1984,Canada,59.9,147.5,-155,-155,147.5,87.5,92.5,-95,92.5,150,-157.5,-162.5,150,390,SBD,Single-ply
5,60,Juniors,F,Yuko Kondo,1986,Japan,59.3,130,140,152.5,152.5,75,85,-92.5,85,135,147.5,-160,147.5,385,SBD,Single-ply
1,67.5,Juniors,F,Alyssa Hitchcock,1984,USA,63.7,-180,-180,180,180,87.5,95,100,100,-167.5,172.5,-187.5,172.5,452.5,SBD,Single-ply
2,67.5,Juniors,F,Lucia Christensen,1985,Sweden,67.2,140,150,155,155,90,95,-100,95,145,155,-160,155,405,SBD,Single-ply
3,67.5,Juniors,F,Yuka Kuroyanagi,1987,Japan,60.5,120,-135,-135,120,75,80,-85,80,142.5,150,-155,150,350,SBD,Single-ply
1,75,Juniors,F,Pavla Kladivová,1984,Czechia,74.3,175,-185,185,185,100,105,-107.5,105,145,152.5,157.5,157.5,447.5,SBD,Single-ply
2,75,Juniors,F,Sonja Pokkinen,1985,Finland,70.1,150,160,-167.5,160,92.5,97.5,-102.5,97.5,150,157.5,165,165,422.5,SBD,Single-ply
3,75,Juniors,F,Ayako Nishida,1987,Japan,71.6,165,-175,-175,165,80,87.5,-90,87.5,155,165,-172.5,165,417.5,SBD,Single-ply
4,75,Juniors,F,Pamela Bartz,1987,USA,67.7,152.5,160,165,165,85,92.5,97.5,97.5,150,-157.5,-157.5,150,412.5,SBD,Single-ply
5,75,Juniors,F,Magdalena Jablonska,1985,Poland,67.6,155,165,170,170,70,75,80,80,140,-155,-155,140,390,SBD,Single-ply
6,75,Juniors,F,Katarzyna Szlendak,1986,Poland,73.8,140,150,-160,150,80,-85,-85,80,140,155,160,160,390,SBD,Single-ply
7,75,Juniors,F,Nicole Carr,1984,Australia,74.4,135,147.5,-155,147.5,70,-75,-75,70,140,-152.5,-155,140,357.5,SBD,Single-ply
1,82.5,Juniors,F,Rae Marion Lene,1986,Canada,80.7,155,170,177.5,177.5,125,-135,135,135,145,155,157.5,157.5,470,SBD,Single-ply
2,82.5,Juniors,F,Maria Johansson,1984,Sweden,81.7,170,-180,-180,170,-110,110,115,115,170,175,-187.5,175,460,SBD,Single-ply
3,82.5,Juniors,F,Monica Millet,1987,USA,82,157.5,167.5,-172.5,167.5,87.5,95,-102.5,95,170,182.5,190,190,452.5,SBD,Single-ply
4,82.5,Juniors,F,Jazminde Traeger,1987,Australia,79.4,150,165,-175,165,-85,-90,92.5,92.5,145,155,157.5,157.5,415,SBD,Single-ply
DQ,82.5,Juniors,F,Anna Kierul,1984,Poland,80,140,152.5,157.5,157.5,75,80,-82.5,80,-140,-140,-140,,,SBD,Single-ply
1,90,Juniors,F,Yuliya Stesenko,1984,Uzbekistan,88.6,185,200,207.5,207.5,105,115,-120,115,170,190,205,205,527.5,SBD,Single-ply
2,90,Juniors,F,Maria Pileva,1983,Bulgaria,87.8,-175,175,190,190,75,-85,-85,75,190,200,202.5,202.5,467.5,SBD,Single-ply
3,90,Juniors,F,Leigh Arnold,1986,USA,89,172.5,182.5,190,190,90,-92.5,92.5,92.5,172.5,-182.5,185,185,467.5,SBD,Single-ply
4,90,Juniors,F,Eszter Szollos,1983,Hungary,86.9,-130,130,140,140,90,-95,95,95,130,140,145,145,380,SBD,Single-ply
1,90+,Juniors,F,Hildeborg Juvet Hugdal,1983,Norway,124,-245,245,255,255,165,170,175,175,200,210,-215,210,640,SBD,Single-ply
2,90+,Juniors,F,Amber Heard,1987,USA,135.5,192.5,-202.5,207.5,207.5,90,-97.5,105,105,-177.5,177.5,192.5,192.5,505,SBD,Single-ply
3,90+,Juniors,F,Tamara Walter,1987,USA,132.4,175,-177.5,182.5,182.5,90,97.5,-120,97.5,147.5,160,-165,160,440,SBD,Single-ply
