Division,WeightClassKg,Place,Name,Team,BodyweightKg,Best3SquatKg,Best3BenchKg,Best3DeadliftKg,TotalKg,Equipment,Event,Sex
Boys,51.71,1,Rigo Pena,Pharr Valley View,50.8,167.83,102.06,170.1,439.98,Single-ply,SBD,M
Boys,51.71,2,Diego Pena,Roma,51.44,158.76,83.91,154.22,396.89,Single-ply,SBD,M
Boys,51.71,3,Aaron Rocha,Rio Grande City Grulla,49.9,131.54,72.57,158.76,362.87,Single-ply,SBD,M
Boys,51.71,4,Pablo Gutierrez #3,Weslaco East,51.53,122.47,81.65,154.22,358.34,Single-ply,SBD,M
Boys,51.71,5,Alexis Ezparza,Santa Maria,49.62,111.13,58.97,113.4,283.5,Single-ply,SBD,M
Boys,51.71,6,Cristian Lopez,PSJA North,49.8,106.59,58.97,102.06,267.62,Single-ply,SBD,M
Boys,51.71,7,Anthony Espinoza,Weslaco,51.71,79.38,52.16,102.06,233.6,Single-ply,SBD,M
Boys,51.71,DQ,Cesar Casas,Hidalgo Early College,51.44,142.88,,,,Single-ply,SBD,M
Boys,51.71,DQ,Stevie Solis,PSJA Memorial,51.07,156.49,86.18,,,Single-ply,SBD,M
Boys,55.79,1,Alex Solis,Weslaco East,55.61,206.38,127.01,192.78,526.17,Single-ply,SBD,M
Boys,55.79,2,Omar Puente,Los Fresnos,54.88,188.24,111.13,188.24,487.61,Single-ply,SBD,M
Boys,55.79,3,Josh Molina,Port Isabel,53.71,163.29,86.18,176.9,426.38,Single-ply,SBD,M
Boys,59.87,4,Robert de la Cerda,Mercedes,55.97,156.49,97.52,161.03,415.04,Single-ply,SBD,M
Boys,55.79,5,Brandon Guzman,Weslaco East,55.79,138.35,70.31,149.69,358.34,Single-ply,SBD,M
Boys,55.79,6,Christian Gonzalez,Weslaco,55.7,117.93,68.04,122.47,308.44,Single-ply,SBD,M
Boys,55.79,DQ,Augustine Soto,Mission,55.16,185.97,97.52,,,Single-ply,SBD,M
Boys,59.87,1,Rolando Borjas,Los Fresnos,56.7,195.04,113.4,206.38,514.83,Single-ply,SBD,M
Boys,59.87,2,Gilbert Flores,Pharr Valley View,59.42,190.51,106.59,190.51,487.61,Single-ply,SBD,M
Boys,59.87,3,Isaias Carrasco,Pharr Valley View,58.97,185.97,97.52,192.78,476.27,Single-ply,SBD,M
Boys,67.13,4,Carlos Castillo,Los Fresnos,60.06,181.44,99.79,190.51,471.74,Single-ply,SBD,M
Boys,59.87,5,Jesse Casarez,Mercedes,58.69,190.51,99.79,158.76,449.06,Single-ply,SBD,M
Boys,59.87,6,Armando Perez,Pharr Valley View,59.42,174.63,83.91,174.63,433.18,Single-ply,SBD,M
Boys,59.87,7,Juan Delgado,Roma,59.51,154.22,88.45,172.37,415.04,Single-ply,SBD,M
Boys,59.87,8,Robert Aranda,Mission Veterans Memorial,59.42,147.42,74.84,136.08,358.34,Single-ply,SBD,M
Boys,59.87,9,Miguel Cantu,Mission,59.87,124.74,92.99,122.47,340.19,Single-ply,SBD,M
Boys,59.87,DQ,Eric Garcia,Pharr Valley View,58.97,,,,,Single-ply,SBD,M
Boys,59.87,DQ,Edgar Gonzalez,Rio Grande City,59.51,102.06,43.09,,,Single-ply,SBD,M
Boys,67.13,1,Ruben Salinas,Roma,66.5,240.4,136.08,213.19,589.67,Single-ply,SBD,M
Boys,67.13,2,Ernie Sandell,San Benito,67.13,215.46,129.27,217.72,562.45,Single-ply,SBD,M
Boys,67.13,3,Esteban Flores,Pharr Valley View,65.32,204.12,113.4,226.8,544.31,Single-ply,SBD,M
Boys,67.13,4,Justin Gonzalez,Weslaco,64.05,197.31,95.25,192.78,485.34,Single-ply,SBD,M
Boys,67.13,5,Julian Morales,Weslaco,64.59,192.78,86.18,197.31,476.27,Single-ply,SBD,M
Boys,67.13,6,Joe Bazaldua,Mercedes,65.41,188.24,102.06,183.7,474,Single-ply,SBD,M
Boys,67.13,7,Danny Melendez,Pharr Valley View,66.22,167.83,106.59,197.31,471.74,Single-ply,SBD,M
Boys,67.13,8,Martin Rodriguez #4,Hidalgo Early College,65.68,165.56,95.25,190.51,451.32,Single-ply,SBD,M
Boys,67.13,9,Alexis Guajardo #2,Pharr Valley View,67.13,158.76,111.13,158.76,428.64,Single-ply,SBD,M
Boys,67.13,10,Alonzo Toscano,Edcouch-Elsa,63.41,142.88,90.72,174.63,408.23,Single-ply,SBD,M
Boys,67.13,11,Adam Perez,Santa Maria,64.05,131.54,81.65,147.42,360.61,Single-ply,SBD,M
Boys,67.13,12,Adan Cantu,Rio Grande City Grulla,65.05,136.08,65.77,120.2,322.05,Single-ply,SBD,M
Boys,67.13,13,Christian de la Garza,Mission Veterans Memorial,66.68,88.45,63.5,113.4,265.35,Single-ply,SBD,M
Boys,67.13,DQ,Manny Barrera,Rio Grande City Grulla,62.51,145.15,,,,Single-ply,SBD,M
Boys,67.13,DQ,Rigo Ramirez,PSJA North,67.04,142.88,,,,Single-ply,SBD,M
Boys,74.84,1,Bobby Gonzalez,Weslaco East,70.94,226.8,115.67,247.21,589.67,Single-ply,SBD,M
Boys,74.84,2,Aric Hernandez,Weslaco,74.48,206.38,115.67,231.33,553.38,Single-ply,SBD,M
Boys,82.1,3,DJ Martinez,PSJA Memorial,75.02,213.19,129.27,208.65,551.11,Single-ply,SBD,M
Boys,74.84,4,Edward Cantu,La Feria,70.58,204.12,129.27,213.19,546.58,Single-ply,SBD,M
Boys,74.84,5,Isaac Garza,PSJA Memorial,70.67,213.19,129.27,204.12,546.58,Single-ply,SBD,M
Boys,74.84,6,Miguel Pena,Pharr Valley View,73.94,192.78,136.08,199.58,528.44,Single-ply,SBD,M
Boys,74.84,7,Jaime Rodriguez,Pharr Valley View,74.84,188.24,120.2,215.46,523.9,Single-ply,SBD,M
Boys,74.84,8,Eddie Montalvo,Pharr Valley View,73.48,208.65,97.52,206.38,512.56,Single-ply,SBD,M
Boys,74.84,9,Margarito Garcia,Santa Maria,73.12,208.65,92.99,172.37,474,Single-ply,SBD,M
Boys,74.84,10,Troy Laznovsky,Port Isabel,73.39,181.44,108.86,163.29,453.59,Single-ply,SBD,M
Boys,74.84,11,Alex Melendez,Pharr Valley View,74.84,170.1,92.99,190.51,453.59,Single-ply,SBD,M
Boys,74.84,12,Julain Guerrero,Edcouch-Elsa,70.58,179.17,99.79,170.1,449.06,Single-ply,SBD,M
Boys,74.84,13,Juan Gonzalez,Roma,71.21,158.76,102.06,183.7,444.52,Single-ply,SBD,M
Boys,74.84,14,Mario Breck,PSJA North,72.85,161.03,104.33,158.76,424.11,Single-ply,SBD,M
Boys,74.84,15,Joey Estrada,PSJA North,73.75,181.44,95.25,133.81,410.5,Single-ply,SBD,M
Boys,74.84,16,Andrew Lopez,Rio Grande City,71.94,127.01,68.04,138.35,333.39,Single-ply,SBD,M
Boys,74.84,DQ,James Ramirez,Port Isabel,72.21,,,,,Single-ply,SBD,M
Boys,82.1,1,Eliseo Garza,Los Fresnos,80.56,240.4,142.88,249.48,632.76,Single-ply,SBD,M
Boys,82.1,2,Luis Munoz #4,Hidalgo Early College,82.1,244.94,140.61,224.53,610.08,Single-ply,SBD,M
Boys,82.1,3,Chris Belmares,Weslaco East,81.47,240.4,136.08,231.33,607.81,Single-ply,SBD,M
Boys,82.1,4,Jose de la Rosa,Roma,81.56,233.6,127.01,231.33,591.94,Single-ply,SBD,M
Boys,82.1,5,Danny Cruz,Donna,76.66,231.33,127.01,213.19,571.53,Single-ply,SBD,M
Boys,82.1,6,Mathew Glavan,San Benito,82.1,217.72,122.47,229.06,569.26,Single-ply,SBD,M
Boys,82.1,7,Wence Anzaldua,Hidalgo Early College,77.38,226.8,120.2,213.19,560.19,Single-ply,SBD,M
Boys,82.1,8,Miguel Galvan,Pharr Valley View,79.83,204.12,124.74,210.92,539.77,Single-ply,SBD,M
Boys,82.1,9,Edgar Gonzalez,Roma,81.28,204.12,111.13,215.46,530.7,Single-ply,SBD,M
Boys,82.1,10,Randy de la Garza,Mission,78.93,204.12,127.01,183.7,514.83,Single-ply,SBD,M
Boys,82.1,11,Jesse Vega,Mercedes,79.02,195.04,120.2,181.44,496.68,Single-ply,SBD,M
Boys,82.1,12,Rick Garza,Mercedes,80.29,190.51,129.27,176.9,496.68,Single-ply,SBD,M
Boys,82.1,13,Benito Mendoza,Los Fresnos,81.56,183.7,113.4,199.58,496.68,Single-ply,SBD,M
Boys,82.1,14,Joe Garcia,Donna,81.83,183.7,117.93,195.04,496.68,Single-ply,SBD,M
Boys,82.1,15,Sabino Botello,Pharr Valley View,81.19,190.51,106.59,192.78,489.88,Single-ply,SBD,M
Boys,82.1,16,Ben Nervarez,Edcouch-Elsa,80.2,172.37,97.52,208.65,478.54,Single-ply,SBD,M
Boys,82.1,17,Romy Pizano,La Feria,76.11,156.49,115.67,158.76,430.91,Single-ply,SBD,M
Boys,82.1,18,Alejandro Alvarez,Donna,80.2,163.29,97.52,170.1,430.91,Single-ply,SBD,M
Boys,82.1,19,Sabas Garcia,Mission,78.2,156.49,95.25,174.63,426.38,Single-ply,SBD,M
Boys,82.1,20,Isai Perez,Rio Grande City Grulla,80.01,149.69,74.84,145.15,369.68,Single-ply,SBD,M
Boys,82.1,DQ,Epifanio Chavero,Rio Grande City,81.92,219.99,127.01,,,Single-ply,SBD,M
Boys,82.1,DQ,Edward Alaniz,PSJA North,82.1,,,,,Single-ply,SBD,M
Boys,82.1,DQ,Alberto Roque,Mission,80.65,181.44,111.13,,,Single-ply,SBD,M
Boys,89.81,1,Ivan Arrevalo,Pharr Valley View,88.45,251.74,142.88,281.23,675.85,Single-ply,SBD,M
Boys,89.81,2,Ramiro Flores,Los Fresnos,88.36,265.35,161.03,235.87,662.24,Single-ply,SBD,M
Boys,89.81,3,Eugene Manrique,Weslaco East,89.54,256.28,136.08,263.08,655.44,Single-ply,SBD,M
Boys,89.81,4,Sylvano Cruces,Los Fresnos,87.09,233.6,142.88,226.8,603.28,Single-ply,SBD,M
Boys,89.81,5,Geraldo Perez,Mercedes,86.45,240.4,122.47,217.72,580.6,Single-ply,SBD,M
Boys,89.81,6,Ernesto Tafolla,Weslaco,83.46,231.33,113.4,231.33,576.06,Single-ply,SBD,M
Boys,89.81,7,Francisco Valle,Hidalgo Early College,87.27,226.8,124.74,185.97,537.51,Single-ply,SBD,M
Boys,89.81,8,Cliff Salinas,Roma,89.36,195.04,115.67,226.8,537.51,Single-ply,SBD,M
Boys,89.81,9,Fernando Rivera #2,Port Isabel,88.9,210.92,138.35,185.97,535.24,Single-ply,SBD,M
Boys,89.81,10,Ej Ruiz,PSJA North,86.91,199.58,127.01,197.31,523.9,Single-ply,SBD,M
Boys,89.81,11,Cruz Garcia,Roma,87.82,206.38,131.54,183.7,521.63,Single-ply,SBD,M
Boys,89.81,12,Lee Gamez,Mercedes,89.63,208.65,108.86,201.85,519.36,Single-ply,SBD,M
Boys,89.81,13,Ebert Gauna,Donna,89.81,165.56,102.06,185.97,453.59,Single-ply,SBD,M
Boys,89.81,14,Jorge Berrones,PSJA North,88.18,176.9,99.79,149.69,426.38,Single-ply,SBD,M
Boys,89.81,DQ,Javier Perez,PSJA Memorial,84.82,219.99,,,,Single-ply,SBD,M
Boys,89.81,DQ,Adonis Juarez,Mission,83.73,122.47,,,,Single-ply,SBD,M
Boys,89.81,DQ,Jose A Valdez,Hidalgo Early College,86.91,190.51,92.99,,,Single-ply,SBD,M
Boys,99.79,1,Xaviel Hinojosa,Weslaco East,98.97,317.51,192.78,263.08,773.37,Single-ply,SBD,M
Boys,99.79,2,Larry Cardenas,Weslaco,96.16,274.42,149.69,251.74,675.85,Single-ply,SBD,M
Boys,109.77,3,Jesus Morales #3,Weslaco East,99.88,272.16,156.49,226.8,655.44,Single-ply,SBD,M
Boys,99.79,4,Luis Hernandez,Edcouch-Elsa,94.17,254.01,156.49,242.67,653.17,Single-ply,SBD,M
Boys,99.79,5,William Relko,Mission,98.16,281.23,158.76,208.65,648.64,Single-ply,SBD,M
Boys,99.79,6,Juan Villrreal,Edcouch-Elsa,93.35,249.48,133.81,222.26,605.55,Single-ply,SBD,M
Boys,99.79,7,Victor Aguilar #2,Mercedes,98.43,233.6,151.95,213.19,598.74,Single-ply,SBD,M
Boys,99.79,8,Isaac Carrizales,La Feria,93.71,201.85,133.81,208.65,544.31,Single-ply,SBD,M
Boys,99.79,9,Joaquin Guillen,Mercedes,97.7,231.33,127.01,181.44,539.77,Single-ply,SBD,M
Boys,99.79,10,Robert Cuellar,Weslaco,92.26,213.19,124.74,167.83,505.76,Single-ply,SBD,M
Boys,99.79,11,Kalub Rubalcava,Donna,94.71,210.92,102.06,188.24,501.22,Single-ply,SBD,M
Boys,99.79,12,Christian Brown,Pharr Valley View,97.52,165.56,102.06,199.58,467.2,Single-ply,SBD,M
Boys,99.79,13,Alan Gonzalez,Santa Maria,98.61,174.63,90.72,183.7,449.06,Single-ply,SBD,M
Boys,99.79,14,Alejandro Hernandez,Hidalgo Early College,92.62,161.03,95.25,185.97,442.25,Single-ply,SBD,M
Boys,99.79,15,Augustin Hernandez,PSJA North,96.07,158.76,79.38,158.76,396.89,Single-ply,SBD,M
Boys,99.79,16,Jorge López,Rio Grande City,94.17,142.88,65.77,133.81,342.46,Single-ply,SBD,M
Boys,109.77,DQ,Anthony Rodriguez,Edcouch-Elsa,99.97,,,,,Single-ply,SBD,M
Boys,109.77,1,Andre Evans,San Benito,108.86,299.37,158.76,278.96,737.09,Single-ply,SBD,M
Boys,109.77,2,Joel White,La Feria,109.04,294.84,181.44,233.6,709.87,Single-ply,SBD,M
Boys,109.77,3,Joe Cantu,Weslaco,109.41,310.71,140.61,235.87,687.19,Single-ply,SBD,M
Boys,109.77,4,Jose Barrios,Weslaco East,104.14,285.76,161.03,238.14,684.92,Single-ply,SBD,M
Boys,109.77,5,Christian Garcia,Weslaco East,106.78,278.96,147.42,244.94,671.32,Single-ply,SBD,M
Boys,109.77,6,Mauricio Verdin,Weslaco,100.15,288.03,129.27,235.87,653.17,Single-ply,SBD,M
Boys,109.77,7,Ruben Rubio,Mercedes,105.32,256.28,140.61,204.12,601.01,Single-ply,SBD,M
Boys,109.77,8,Jorge Garcia,Pharr Valley View,107.95,244.94,142.88,208.65,596.47,Single-ply,SBD,M
Boys,109.77,9,Chris Maple,La Feria,101.88,204.12,133.81,210.92,548.85,Single-ply,SBD,M
Boys,109.77,10,Sebastian Garcia,PSJA Memorial,104.24,208.65,131.54,208.65,548.85,Single-ply,SBD,M
Boys,109.77,11,Joe Martinez,Edcouch-Elsa,107.86,222.26,104.33,215.46,542.04,Single-ply,SBD,M
Boys,109.77,12,Justin Garza,PSJA North,108.14,217.72,120.2,176.9,514.83,Single-ply,SBD,M
Boys,109.77,13,Julio Davila,PSJA North,100.79,172.37,115.67,176.9,464.93,Single-ply,SBD,M
Boys,109.77,DQ,Aureliano Silva,Port Isabel,106.05,278.96,,,,Single-ply,SBD,M
Boys,109.77,DQ,Sam Salazar,Weslaco East,106.96,278.96,161.03,,,Single-ply,SBD,M
Boys,109.77,DQ,Nathan Gomez,Edcouch-Elsa,106.23,,,,,Single-ply,SBD,M
Boys,124.74,1,Carlos Cuellar,Weslaco East,123.83,333.39,201.85,258.55,793.79,Single-ply,SBD,M
Boys,124.74,2,Juan Rodriguez,Edcouch-Elsa,120.66,269.89,163.29,263.08,696.26,Single-ply,SBD,M
Boys,124.74,3,Jorge Alvarez,Edcouch-Elsa,120.2,281.23,176.9,222.26,680.39,Single-ply,SBD,M
Boys,124.74,4,Roy Valdez,Los Fresnos,120.84,274.42,145.15,244.94,664.51,Single-ply,SBD,M
Boys,124.74,5,Marcleo Campos,Mercedes,111.67,265.35,151.95,244.94,662.24,Single-ply,SBD,M
Boys,124.74,6,Ezequiel Lopez,San Benito,124.28,249.48,136.08,215.46,601.01,Single-ply,SBD,M
Boys,124.74,7,Pedro Lozano,San Benito,124.51,238.14,133.81,229.06,601.01,Single-ply,SBD,M
Boys,124.74,8,Andrew Cruz,PSJA North,114.31,244.94,147.42,192.78,585.13,Single-ply,SBD,M
Boys,124.74,9,Abel Cruces,Los Fresnos,123.47,226.8,154.22,204.12,585.13,Single-ply,SBD,M
Boys,124.74,10,Francisco Cavazos,Mission Veterans Memorial,123.6,215.46,104.33,226.8,546.58,Single-ply,SBD,M
Boys,124.74,11,Michael Kalnas,La Feria,112.13,201.85,111.13,181.44,494.42,Single-ply,SBD,M
Boys,124.74,12,Rick Hinojosa,Mercedes,113.04,181.44,124.74,183.7,489.88,Single-ply,SBD,M
Boys,124.74+,1,Jorge Mendez,Pharr Valley View,126.1,362.87,158.76,254.01,775.64,Single-ply,SBD,M
Boys,124.74+,2,Mike Benavides,San Benito,145.15,310.71,192.78,222.26,725.75,Single-ply,SBD,M
Boys,124.74+,3,Juan Zuniga,Mission,128.28,278.96,149.69,213.19,641.83,Single-ply,SBD,M
Boys,124.74+,4,Alexander Yanez,Mission,131.27,258.55,142.88,213.19,614.62,Single-ply,SBD,M
Boys,124.74+,5,Adrian Cantu,Rio Grande City Grulla,142.16,254.01,149.69,204.12,607.81,Single-ply,SBD,M
Boys,124.74+,6,Adrian Alcantar,PSJA Memorial,127.01,235.87,138.35,188.24,562.45,Single-ply,SBD,M
Boys,124.74+,7,Francisco Pedraza,Hidalgo Early College,134.99,226.8,117.93,213.19,557.92,Single-ply,SBD,M
Boys,124.74+,8,Danny Young,Mercedes,129,226.8,120.2,199.58,546.58,Single-ply,SBD,M
Boys,124.74+,9,Arturo Velasquez,Roma,126.73,219.99,138.35,183.7,542.04,Single-ply,SBD,M
Boys,124.74+,DQ,Jose Gonzalez #16,Roma,155.76,199.58,133.81,,,Single-ply,SBD,M
Boys,124.74+,DQ,Mark Benavides,Port Isabel,148.42,,,,,Single-ply,SBD,M
Boys,124.74+,DQ,Alvin Lofton,Edcouch-Elsa,135.53,,,,,Single-ply,SBD,M
